<?xml version="1.0" encoding="UTF-8"?>
<svg width="26px" height="26px" viewBox="0 0 26 26" version="1.1" xmlns="http://www.w3.org/2000/svg" xmlns:xlink="http://www.w3.org/1999/xlink">
    <!-- Generator: Sketch 47.1 (45422) - http://www.bohemiancoding.com/sketch -->
    <title>Icon</title>
    <desc>Created with Sketch.</desc>
    <defs></defs>
    <g id="Mobile-|-Belvedere-Bespoke" stroke="none" stroke-width="1" fill="none" fill-rule="evenodd">
        <g id="2.3_Belvedere_Bespoke_Navegation_Mobile" transform="translate(-159.000000, -468.000000)">
            <g id="Icon" transform="translate(160.000000, 469.000000)">
                <circle id="Oval" stroke="#4797E1" cx="12.4196117" cy="12" r="12"></circle>
                <rect fill="#4797E1" x="5.41961174" y="11" width="14" height="2"></rect>
            </g>
        </g>
    </g>
</svg>