<?xml version="1.0" encoding="UTF-8"?>
<svg width="229px" height="128px" viewBox="0 0 229 128" version="1.1" xmlns="http://www.w3.org/2000/svg" xmlns:xlink="http://www.w3.org/1999/xlink">
    <!-- Generator: Sketch 47.1 (45422) - http://www.bohemiancoding.com/sketch -->
    <title>Logo_Belvedere_Vodka</title>
    <desc>Created with Sketch.</desc>
    <defs></defs>
    <g id="Desktop-|-Belvedere-Bespoke" stroke="none" stroke-width="1" fill="none" fill-rule="evenodd">
        <g id="0.0_Belvedere_Bespoke_Guideline_Desktop" transform="translate(-1407.000000, -682.000000)" fill-rule="nonzero" fill="#FFFFFF">
            <g id="Logos" transform="translate(1377.000000, 563.000000)">
                <g id="Logo_Belvedere_Vodka" transform="translate(30.484438, 119.000000)">
                    <path d="M80.4434457,123.685393 L78.094382,112.802996 L75.9370787,112.802996 L79.5325843,127.616479 L81.3543071,127.616479 L84.9498127,112.802996 L82.7925094,112.802996 L80.4434457,123.685393 Z M97.4621723,112.611236 C95.0172285,112.611236 93.7228464,114.289139 93.7228464,117.021723 L93.7228464,123.349813 C93.7228464,126.082397 95.0651685,127.7603 97.4621723,127.7603 C99.9071161,127.7603 101.249438,126.082397 101.249438,123.349813 L101.249438,117.021723 C101.201498,114.289139 99.9071161,112.611236 97.4621723,112.611236 Z M99.0921348,123.349813 C99.0921348,124.883895 98.4689139,125.794757 97.4142322,125.794757 C96.4074906,125.794757 95.7842697,124.883895 95.7842697,123.349813 L95.7842697,117.021723 C95.7842697,115.48764 96.4074906,114.576779 97.4142322,114.576779 C98.4689139,114.576779 99.0921348,115.48764 99.0921348,117.021723 L99.0921348,123.349813 Z M114.241199,112.802996 L110.741573,112.802996 L110.741573,127.616479 L114.241199,127.616479 C117.021723,127.616479 118.316105,125.938577 118.316105,123.062172 L118.316105,117.309363 C118.316105,114.480899 116.973783,112.802996 114.241199,112.802996 Z M116.206742,123.158052 C116.206742,124.788015 115.583521,125.746816 114.145318,125.746816 L112.850936,125.746816 L112.850936,114.672659 L114.145318,114.672659 C115.583521,114.672659 116.206742,115.583521 116.206742,117.261423 L116.206742,123.158052 Z M135.430712,112.802996 L133.225468,112.802996 L129.965543,119.562547 L129.965543,112.802996 L127.85618,112.802996 L127.85618,127.616479 L129.965543,127.616479 L129.965543,122.918352 L130.828464,121.192509 L133.465169,127.616479 L135.718352,127.616479 L132.362547,119.418727 L135.430712,112.802996 Z M148.901873,112.802996 L146.98427,112.802996 L143.676404,127.616479 L145.785768,127.616479 L146.408989,124.596255 L146.744569,124.596255 L149.141573,124.596255 L149.477154,124.596255 L150.100375,127.616479 L152.209738,127.616479 L148.901873,112.802996 Z M146.744569,122.726592 L147.943071,116.590262 L149.141573,122.726592 L146.744569,122.726592 Z" id="Shape"></path>
                    <path d="M39.5026217,72.5812734 C39.5026217,70.6157303 39.4067416,69.9925094 40.1258427,69.5610487 C40.4614232,69.3692884 41.2764045,69.3213483 43.8172285,69.3213483 C46.6456929,69.3213483 47.4127341,69.3213483 47.7483146,69.3213483 C48.5153558,69.3692884 48.7550562,69.5610487 48.7550562,70.9992509 L50.0494382,70.9992509 L50.0973783,67.211985 L32.1677903,67.211985 L32.1677903,68.4104869 C34.1812734,68.458427 34.2771536,68.6981273 34.2771536,71.7183521 L34.2771536,98.1333333 C34.2771536,101.153558 34.1812734,101.393258 32.1677903,101.441199 L32.1677903,102.6397 L50.0973783,102.6397 L50.0494382,98.8524345 L48.7550562,98.8524345 C48.7550562,100.290637 48.5153558,100.482397 47.7483146,100.530337 C47.4127341,100.578277 46.693633,100.530337 43.8172285,100.530337 C41.2764045,100.530337 40.4614232,100.530337 40.1258427,100.290637 C39.4067416,99.859176 39.5026217,99.2359551 39.5026217,97.270412 L39.5026217,84.9018727 L39.5026217,84.9018727 L43.0501873,84.9018727 C45.7827715,84.9018727 45.8307116,85.764794 46.0224719,88.0179775 L47.0771536,88.0179775 L47.0771536,79.6284644 L46.0224719,79.6284644 C46.070412,82.4089888 45.7827715,83.3677903 43.0501873,83.3677903 L39.5026217,83.3677903 L39.5026217,72.5812734 Z" id="Shape"></path>
                    <path d="M107.481648,98.1333333 C107.481648,101.153558 107.385768,101.393258 105.372285,101.441199 L105.372285,102.6397 L123.301873,102.6397 L123.253933,98.8524345 L121.959551,98.8524345 C121.959551,100.290637 121.71985,100.482397 120.952809,100.530337 C120.617228,100.578277 119.898127,100.530337 117.021723,100.530337 C114.480899,100.530337 113.665918,100.530337 113.330337,100.290637 C112.611236,99.859176 112.707116,99.2359551 112.707116,97.270412 L112.707116,84.9018727 L112.707116,84.9018727 L116.254682,84.9018727 C118.987266,84.9018727 119.035206,85.764794 119.226966,88.0179775 L120.281648,88.0179775 L120.281648,79.6284644 L119.226966,79.6284644 C119.274906,82.4089888 118.987266,83.3677903 116.254682,83.3677903 L112.707116,83.3677903 L112.707116,72.5812734 C112.707116,70.6157303 112.611236,69.9925094 113.330337,69.5610487 C113.665918,69.3692884 114.480899,69.3213483 117.021723,69.3213483 C119.850187,69.3213483 120.569288,69.3213483 120.952809,69.3213483 C121.71985,69.3692884 121.959551,69.5610487 121.959551,70.9992509 L123.253933,70.9992509 L123.301873,67.211985 L105.372285,67.211985 L105.372285,68.4104869 C107.385768,68.458427 107.481648,68.6981273 107.481648,71.7183521 L107.481648,98.1333333 Z" id="Shape"></path>
                    <path d="M164.817978,72.5812734 C164.817978,70.6157303 164.722097,69.9925094 165.441199,69.5610487 C165.776779,69.3692884 166.59176,69.3213483 169.132584,69.3213483 C171.961049,69.3213483 172.72809,69.3213483 173.06367,69.3213483 C173.830712,69.3692884 174.070412,69.5610487 174.070412,70.9992509 L175.364794,70.9992509 L175.412734,67.211985 L157.483146,67.211985 L157.483146,68.4104869 C159.496629,68.458427 159.592509,68.6981273 159.592509,71.7183521 L159.592509,98.1333333 C159.592509,101.153558 159.496629,101.393258 157.483146,101.441199 L157.483146,102.6397 L175.412734,102.6397 L175.364794,98.8524345 L174.070412,98.8524345 C174.070412,100.290637 173.830712,100.482397 173.06367,100.530337 C172.72809,100.578277 172.008989,100.530337 169.132584,100.530337 C166.59176,100.530337 165.776779,100.530337 165.441199,100.290637 C164.722097,99.859176 164.817978,99.2359551 164.817978,97.270412 L164.817978,84.9018727 L164.817978,84.9018727 L168.365543,84.9018727 C171.098127,84.9018727 171.146067,85.764794 171.337828,88.0179775 L172.392509,88.0179775 L172.392509,79.6284644 L171.337828,79.6284644 C171.385768,82.4089888 171.098127,83.3677903 168.365543,83.3677903 L164.817978,83.3677903 L164.817978,72.5812734 Z" id="Shape"></path>
                    <path d="M226.373034,98.9003745 C226.373034,100.338577 226.133333,100.530337 225.366292,100.578277 C224.982772,100.626217 224.31161,100.578277 221.435206,100.578277 C218.894382,100.578277 218.079401,100.578277 217.74382,100.338577 C217.024719,99.9071161 217.120599,99.2838951 217.120599,97.3183521 L217.120599,84.9498127 L217.120599,84.9498127 L220.716105,84.9498127 C223.448689,84.9498127 223.496629,85.8127341 223.640449,88.0659176 L224.695131,88.0659176 L224.695131,79.6764045 L223.640449,79.6764045 C223.68839,82.4569288 223.400749,83.4157303 220.716105,83.4157303 L217.120599,83.4157303 L217.120599,75.2659176 L217.120599,72.5812734 C217.120599,70.6157303 217.024719,69.9925094 217.74382,69.5610487 C218.079401,69.3692884 218.894382,69.3213483 221.435206,69.3213483 C224.26367,69.3213483 224.982772,69.3213483 225.366292,69.3213483 C226.133333,69.3692884 226.373034,69.5610487 226.373034,70.9992509 L227.667416,70.9992509 L227.715356,67.211985 L209.785768,67.211985 L209.785768,68.4104869 C211.799251,68.458427 211.895131,68.6981273 211.895131,71.7183521 L211.895131,72.7250936 L211.895131,84.9018727 L211.895131,97.0786517 L211.895131,98.0853933 C211.895131,101.105618 211.799251,101.345318 209.785768,101.393258 L209.785768,102.59176 L227.715356,102.59176 L227.667416,98.8044944 L226.373034,98.8044944 L226.373034,98.9003745 Z" id="Shape"></path>
                    <path d="M74.5468165,95.4486891 C74.5468165,97.0786517 74.5468165,97.893633 74.3550562,98.564794 C74.1153558,99.6194757 73.4441948,100.338577 72.6771536,100.482397 C72.1018727,100.578277 71.5265918,100.530337 71.047191,100.530337 C70.9992509,100.530337 70.9033708,100.530337 70.8074906,100.530337 L69.2734082,100.530337 L69.1775281,100.530337 C66.6846442,100.530337 65.7258427,100.674157 65.0067416,100.002996 C64.2397004,99.3318352 64.2876404,97.1265918 64.2876404,94.5378277 L64.2876404,71.670412 C64.2876404,68.6022472 64.3835206,68.2187266 66.3970037,68.1707865 L66.3970037,67.1161049 L56.952809,67.1161049 L56.952809,68.1707865 C58.6786517,68.2187266 59.0142322,68.5543071 59.0621723,70.6157303 L59.0621723,97.9895131 C59.0621723,101.009738 58.9662921,101.249438 56.952809,101.297378 L56.952809,102.54382 L69.1775281,102.54382 L75.5535581,102.54382 L75.5535581,102.54382 L75.5535581,102.44794 L75.6014981,95.352809 L74.5468165,95.352809 L74.5468165,95.4486891 Z" id="Shape"></path>
                    <path d="M82.0254682,70.5198502 C81.8816479,69.8007491 81.929588,69.4651685 82.1692884,69.0816479 C82.4089888,68.6981273 83.0801498,68.506367 83.9910112,68.458427 L83.9910112,67.2599251 L74.4509363,67.2599251 L74.4509363,68.458427 C76.2247191,68.458427 76.3205993,68.8419476 77.0876404,71.2389513 L86.4838951,102.6397 L88.5932584,102.6397 L90.0314607,98.2292135 L90.0314607,98.2292135 L99.2359551,69.8966292 L99.2359551,69.8966292 C99.7153558,68.4104869 101.297378,68.5543071 102.11236,68.4104869 L102.11236,67.211985 L99.7153558,67.211985 L97.3662921,67.211985 L94.9692884,67.211985 L94.9692884,68.4104869 C96.2636704,68.4104869 98.3730337,68.5543071 97.7018727,70.6636704 L89.5041199,96.02397 L82.0254682,70.5198502 Z" id="Shape"></path>
                    <path d="M130.397004,97.7498127 C130.397004,100.626217 130.253184,101.393258 128.19176,101.393258 L128.19176,102.6397 L136.868914,102.831461 C136.868914,102.831461 153.55206,103.886142 153.55206,84.7101124 C153.55206,65.5820225 136.868914,67.0681648 136.868914,67.0681648 L128.28764,67.2599251 L128.28764,68.458427 C130.205243,68.458427 130.397004,69.129588 130.397004,71.5745318 L130.397004,97.7498127 Z M138.594757,100.961798 C135.958052,100.961798 135.622472,100.722097 135.622472,99.0441948 L135.622472,96.3116105 L135.622472,70.42397 C135.622472,68.7460674 135.910112,68.458427 138.642697,68.458427 C138.642697,68.458427 147.943071,69.3213483 147.943071,84.8059925 C147.895131,100.338577 139.505618,100.961798 138.594757,100.961798 Z" id="Shape"></path>
                    <path d="M201.971536,104.173783 C203.793258,107.002247 206.573783,109.591011 210.600749,109.591011 L211.991011,109.591011 L211.991011,108.392509 C209.210487,107.673408 209.018727,107.146067 205.183521,101.009738 L196.410487,86.7715356 C199.478652,85.7168539 202.834457,83.17603 202.834457,76.9438202 C202.834457,68.7460674 197.081648,67.0681648 191.472659,67.0681648 C185.91161,67.0681648 180.686142,67.2599251 180.686142,67.2599251 L180.686142,68.458427 C182.939326,68.506367 183.274906,68.6501873 183.274906,71.9580524 L183.274906,71.9580524 L183.322846,98.1812734 L183.322846,98.1812734 C183.322846,101.249438 183.226966,101.489139 181.213483,101.489139 L181.213483,102.735581 L188.404494,102.735581 L188.452434,102.783521 L188.452434,102.735581 L190.561798,102.735581 L190.561798,101.489139 C188.596255,101.489139 188.452434,101.201498 188.452434,98.1812734 L188.452434,98.1812734 L188.452434,70.2322097 C188.452434,68.5543071 189.315356,68.4104869 190.705618,68.4104869 C194.876404,68.4104869 197.369288,70.9033708 197.369288,77.3273408 C197.369288,83.7513109 195.116105,85.8606742 190.370037,85.8606742 L201.971536,104.173783 Z" id="Shape"></path>
                    <path d="M17.7378277,80.9228464 C17.7378277,80.9228464 25.9355805,78.6217228 25.9355805,70.4719101 C25.9355805,62.2741573 20.1827715,60.5962547 14.5737828,60.5962547 C8.96479401,60.5962547 0.431460674,60.788015 0.431460674,60.788015 L0.431460674,61.9865169 L2.73258427,61.9865169 C4.88988764,61.9865169 5.80074906,62.5617978 5.80074906,65.5340824 L5.80074906,65.5340824 L5.80074906,98.0374532 C5.80074906,101.345318 5.41722846,101.489139 3.16404494,101.585019 L3.16404494,102.54382 L3.16404494,102.783521 C3.30786517,102.783521 7.33483146,102.783521 10.6906367,102.783521 L10.6906367,102.783521 L15.388764,102.783521 L15.5325843,102.783521 L16.7310861,102.735581 C19.7033708,102.59176 23.2988764,101.776779 25.4561798,98.4689139 C26.9423221,96.1198502 27.5655431,93.1475655 27.5655431,91.0382022 C27.5655431,81.9775281 17.7378277,80.9228464 17.7378277,80.9228464 Z M10.9782772,63.7602996 C10.9782772,62.082397 12.4164794,61.9385768 13.8067416,61.9385768 C18.0254682,61.9385768 20.470412,64.4314607 20.470412,70.8554307 C20.470412,77.2794007 18.0734082,80.4434457 13.3273408,80.4434457 C12.8,80.4434457 11.6494382,80.3955056 10.9782772,80.2516854 C10.9782772,80.2516854 10.9782772,65.4382022 10.9782772,63.7602996 Z M13.9505618,100.961798 C12.4644195,100.961798 10.9782772,100.817978 10.9782772,99.1400749 C10.9782772,97.4621723 10.9782772,82.2172285 10.9782772,82.2172285 C11.6494382,82.0734082 12.8479401,82.0254682 13.423221,82.0254682 C18.4569288,82.0254682 22.1003745,85.2374532 22.1003745,91.6134831 C22.1483146,98.0374532 18.3610487,100.961798 13.9505618,100.961798 Z" id="Shape"></path>
                    <g id="Group" transform="translate(46.501873, 0.000000)">
                        <rect id="Rectangle-path" x="52.8299625" y="31.0651685" width="2.92434457" height="20.6621723"></rect>
                        <rect id="Rectangle-path" x="31.1131086" y="36.7220974" width="2.87640449" height="1"></rect>
                        <path d="M56.8089888,29.6749064 C56.8089888,29.0037453 56.2337079,28.4284644 55.5625468,28.4284644 L53.0217228,28.4284644 C52.3505618,28.4284644 51.7752809,29.0037453 51.7752809,29.6749064 L51.7752809,30.1543071 L56.8089888,30.1543071 L56.8089888,29.6749064 L56.8089888,29.6749064 Z" id="Shape"></path>
                        <rect id="Rectangle-path" x="60.5483146" y="31.0651685" width="2.92434457" height="20.6621723"></rect>
                        <path d="M64.5273408,29.6749064 C64.5273408,29.0037453 63.9520599,28.4284644 63.2808989,28.4284644 L60.7400749,28.4284644 C60.0689139,28.4284644 59.493633,29.0037453 59.493633,29.6749064 L59.493633,30.1543071 L64.5273408,30.1543071 L64.5273408,29.6749064 L64.5273408,29.6749064 Z" id="Shape"></path>
                        <rect id="Rectangle-path" x="71.670412" y="31.0172285" width="2.92434457" height="20.7101124"></rect>
                        <path d="M75.6494382,29.6749064 C75.6494382,29.0037453 75.0741573,28.4284644 74.4029963,28.4284644 L71.8621723,28.4284644 C71.1910112,28.4284644 70.6157303,29.0037453 70.6157303,29.6749064 L70.6157303,30.1543071 L75.6494382,30.1543071 L75.6494382,29.6749064 L75.6494382,29.6749064 Z" id="Shape"></path>
                        <rect id="Rectangle-path" x="79.388764" y="31.0172285" width="2.92434457" height="20.7101124"></rect>
                        <path d="M83.3677903,29.6749064 C83.3677903,29.0037453 82.7925094,28.4284644 82.1213483,28.4284644 L79.5805243,28.4284644 C78.9093633,28.4284644 78.3340824,29.0037453 78.3340824,29.6749064 L78.3340824,30.1543071 L83.3677903,30.1543071 L83.3677903,29.6749064 Z" id="Shape"></path>
                        <rect id="Rectangle-path" x="31.1131086" y="30.6337079" width="2.87640449" height="5.27340824"></rect>
                        <rect id="Rectangle-path" x="38.3041199" y="36.7220974" width="2.87640449" height="1"></rect>
                        <rect id="Rectangle-path" x="38.3041199" y="30.6337079" width="2.87640449" height="5.27340824"></rect>
                        <rect id="Rectangle-path" x="45.447191" y="36.7220974" width="2.87640449" height="1"></rect>
                        <rect id="Rectangle-path" x="45.447191" y="30.6337079" width="2.87640449" height="5.27340824"></rect>
                        <rect id="Rectangle-path" x="31.1131086" y="48.7550562" width="2.87640449" height="1"></rect>
                        <rect id="Rectangle-path" x="31.1131086" y="42.6666667" width="2.87640449" height="5.27340824"></rect>
                        <rect id="Rectangle-path" x="38.3041199" y="48.7550562" width="2.87640449" height="1"></rect>
                        <rect id="Rectangle-path" x="38.3041199" y="42.6666667" width="2.87640449" height="5.27340824"></rect>
                        <rect id="Rectangle-path" x="12.7041199" y="48.7550562" width="2.87640449" height="1"></rect>
                        <rect id="Rectangle-path" x="12.7041199" y="42.6666667" width="2.87640449" height="5.27340824"></rect>
                        <rect id="Rectangle-path" x="19.8951311" y="48.7550562" width="2.87640449" height="1"></rect>
                        <rect id="Rectangle-path" x="19.8951311" y="42.6666667" width="2.87640449" height="5.27340824"></rect>
                        <rect id="Rectangle-path" x="45.447191" y="48.7550562" width="2.87640449" height="1"></rect>
                        <rect id="Rectangle-path" x="45.447191" y="42.6666667" width="2.87640449" height="5.27340824"></rect>
                        <rect id="Rectangle-path" x="101.153558" y="36.7220974" width="2.87640449" height="1"></rect>
                        <rect id="Rectangle-path" x="101.153558" y="30.6337079" width="2.87640449" height="5.27340824"></rect>
                        <polygon id="Shape" points="94.0104869 37.5370787 96.8389513 37.5370787 96.8389513 37.5370787 96.8389513 36.7220974 96.8389513 36.7220974 94.0104869 36.7220974"></polygon>
                        <rect id="Rectangle-path" x="94.0104869" y="30.6337079" width="2.87640449" height="5.27340824"></rect>
                        <rect id="Rectangle-path" x="86.8194757" y="36.7220974" width="2.87640449" height="1"></rect>
                        <rect id="Rectangle-path" x="86.8194757" y="30.6337079" width="2.87640449" height="5.27340824"></rect>
                        <rect id="Rectangle-path" x="101.153558" y="48.7550562" width="2.87640449" height="1"></rect>
                        <rect id="Rectangle-path" x="101.153558" y="42.6666667" width="2.87640449" height="5.27340824"></rect>
                        <rect id="Rectangle-path" x="94.0104869" y="48.7550562" width="2.87640449" height="1"></rect>
                        <rect id="Rectangle-path" x="94.0104869" y="42.6666667" width="2.87640449" height="5.27340824"></rect>
                        <rect id="Rectangle-path" x="119.610487" y="48.7550562" width="2.87640449" height="1"></rect>
                        <rect id="Rectangle-path" x="119.562547" y="42.6666667" width="2.87640449" height="5.27340824"></rect>
                        <rect id="Rectangle-path" x="112.419476" y="48.7550562" width="2.87640449" height="1"></rect>
                        <rect id="Rectangle-path" x="112.419476" y="42.6666667" width="2.87640449" height="5.27340824"></rect>
                        <rect id="Rectangle-path" x="86.8194757" y="48.7550562" width="2.87640449" height="1"></rect>
                        <rect id="Rectangle-path" x="86.8194757" y="42.6666667" width="2.87640449" height="5.27340824"></rect>
                        <path d="M67.5475655,16.4913858 L49.5220974,24.8808989 L50.7685393,26.271161 L84.3745318,26.271161 L85.6209738,24.8808989 L67.5475655,16.4913858 Z M53.1655431,24.6411985 L67.5475655,19.22397 L82.0254682,24.6411985 L53.1655431,24.6411985 Z" id="Shape"></path>
                        <path d="M27.0861423,53.5970037 L27.0861423,24.0659176 L48.659176,24.0659176 L55.8981273,20.7101124 L23.1550562,20.7101124 L23.1550562,24.0659176 L23.1550562,24.0659176 L23.1550562,24.0659176 L26.1273408,25.4561798 L26.1273408,31.6404494 C24.5932584,31.6404494 16.7790262,31.6404494 16.7790262,31.6404494 C12.9438202,35.0921348 7.71835206,36.6262172 7.71835206,36.6262172 L7.71835206,36.6262172 L7.71835206,53.5970037 L0.0479400749,54.8434457 L44.1048689,54.8434457 L46.9333333,53.5970037 L27.0861423,53.5970037 Z M26.1273408,53.5970037 L8.67715356,53.5970037 L8.67715356,37.5850187 L26.1273408,37.5850187 L26.1273408,53.5970037 Z" id="Shape"></path>
                        <path d="M88.1617978,53.5970037 L90.9902622,54.8434457 L135.047191,54.8434457 L127.376779,53.5970037 L127.376779,36.6262172 L127.376779,36.6262172 C127.376779,36.6262172 122.151311,35.0921348 118.316105,31.6404494 C118.316105,31.6404494 110.501873,31.6404494 108.96779,31.6404494 L108.96779,25.4561798 L111.940075,24.0659176 L111.940075,24.0659176 L111.940075,24.0659176 L111.940075,20.7101124 L79.1970037,20.7101124 L86.4359551,24.0659176 L108.008989,24.0659176 L108.008989,53.5970037 L88.1617978,53.5970037 Z M109.01573,37.5850187 L126.465918,37.5850187 L126.465918,53.5970037 L109.01573,53.5970037 L109.01573,37.5850187 Z" id="Shape"></path>
                        <path d="M73.3483146,0.575280899 C71.3348315,-0.1917603 69.2734082,1.10262172 67.2599251,0.335580524 L67.2599251,8.24569288 L54.1243446,8.24569288 L54.1243446,13.3273408 L54.1243446,13.3273408 C45.6389513,17.0187266 30.4419476,19.7033708 30.4419476,19.7033708 L58.1992509,19.7033708 L67.6434457,15.340824 L77.0876404,19.7033708 L104.844944,19.7033708 C104.844944,19.7033708 89.6479401,16.9707865 81.1625468,13.3273408 L81.1625468,13.3273408 L81.1625468,8.24569288 L67.9310861,8.24569288 L67.9310861,4.79400749 C69.8007491,5.17752809 71.6224719,4.17078652 73.4921348,4.88988764 L73.4921348,0.575280899 L73.3483146,0.575280899 Z M67.835206,1.1505618 C69.4651685,1.48614232 71.1430712,0.719101124 72.7730337,1.05468165 C72.7730337,1.58202247 72.7730337,2.15730337 72.7730337,2.68464419 C71.1430712,2.34906367 69.4651685,3.11610487 67.835206,2.78052434 C67.835206,2.25318352 67.835206,1.7258427 67.835206,1.1505618 Z M55.0831461,11.4097378 C56.952809,10.9782772 61.3632959,10.1153558 67.4037453,10.1153558 C73.4921348,10.1153558 78.1902622,10.9782772 80.1078652,11.4097378 L80.1078652,13.3273408 L55.1310861,13.3273408 L55.1310861,11.4097378 L55.0831461,11.4097378 Z" id="Shape"></path>
                        <rect id="Rectangle-path" x="65.5820225" y="42.7146067" width="3.97902622" height="9.01273408"></rect>
                        <rect id="Rectangle-path" x="50.0494382" y="53.5970037" width="35.0441948" height="1.24644195"></rect>
                        <rect id="Rectangle-path" x="45.3033708" y="56.1378277" width="44.5363296" height="1.24644195"></rect>
                    </g>
                </g>
            </g>
        </g>
    </g>
</svg>